{
  "nav": "Nav",
  "annotations": [
    {
      "name": "espace",
      "isVisible": true,
      "opacity": 1,
      "images": [
        { "fileName": "0.jpg", "isVisible": true, "audioFileName": false },
        { "fileName": "1.png", "isVisible": false, "audioFileName": "1.mp3" },
        { "fileName": "2.png", "isVisible": false, "audioFileName": false },
        { "fileName": "3.png", "isVisible": false, "audioFileName": "3.mp3" }
      ]
    },
    {
      "name": "profanation",
      "isVisible": false,
      "opacity": 1,
      "images": [
        { "fileName": "0.jpg", "isVisible": true, "audioFileName": false },
        { "fileName": "1.png", "isVisible": false, "audioFileName": false },
        { "fileName": "2.png", "isVisible": false, "audioFileName": false },
        { "fileName": "3.png", "isVisible": false, "audioFileName": false },
        { "fileName": "4.png", "isVisible": false, "audioFileName": false }
      ]
    }
  ],
  "topics": [
    {
      "name": "reflection",
      "isVisible": true,
      "items": [
        { "fileName": "0.png", "isVisible": true },
        { "fileName": "1.png", "isVisible": false },
        {
          "fileName": false,
          "isVisble": false,
          "text": "Le réalisme romanesque est d'abord le renversement des hiérarchies de la représentation (le primat du narratif sur le descriptif ou la hiérarchie des sujets) et l'adoption d'un mode de focalisation fragmenté ou rapproché qui impose la présence brute au détriment des enchaînements rationnels de l'histoire",
          "author": "Jacques Rancière"
        }
      ]
    }
  ]
}
